…
First we’ll get the senior population for each school (denoted as pop)

``` r
data <- df4 %>% mutate(pop = floor(1e2*t_takes / part_rate))
data
```

    ## # A tibble: 374 x 8
    ##    district        school      year  t_takes part_rate perc_mb    bmr   pop
    ##    <chr>           <chr>       <chr>   <dbl>     <dbl>   <dbl>  <dbl> <dbl>
    ##  1 Stamford        Academy of~ 2012      133        82      47 0.385    162
    ##  2 Stamford        Academy of~ 2013      142        88      51 0.449    161
    ##  3 Connecticut Te~ Albert I P~ 2012       92        58       1 0.0058   158
    ##  4 Connecticut Te~ Albert I P~ 2013       88        55       0 0        160
    ##  5 Amistad Academ~ Amistad Ac~ 2012       34       100      32 0.32      34
    ##  6 Amistad Academ~ Amistad Ac~ 2013       31       100      39 0.39      31
    ##  7 Regional 05     Amity Regi~ 2012      381        87      61 0.531    437
    ##  8 Regional 05     Amity Regi~ 2013      348        80      63 0.504    435
    ##  9 Ansonia         Ansonia Hi~ 2012      118        67      18 0.121    176
    ## 10 Ansonia         Ansonia Hi~ 2013      104        61      18 0.110    170
    ## # ... with 364 more rows
…
